<?xml version="1.0" encoding="UTF-8" standalone="no"?>
<!DOCTYPE svg PUBLIC "-//W3C//DTD SVG 1.1//EN"
 "http://www.w3.org/Graphics/SVG/1.1/DTD/svg11.dtd">
<!-- Generated by graphviz version 2.30.1 (20150306.0020)
 -->
<!-- Title: G Pages: 1 -->
<svg width="440pt" height="4256pt"
 viewBox="0.00 0.00 440.00 4256.00" xmlns="http://www.w3.org/2000/svg" xmlns:xlink="http://www.w3.org/1999/xlink">
<g id="graph0" class="graph" transform="scale(1 1) rotate(0) translate(4 4252)">
<title>G</title>
<polygon fill="white" stroke="white" points="-4,5 -4,-4252 437,-4252 437,5 -4,5"/>
<!-- 140518633950008 -->
<g id="node1" class="node"><title>140518633950008</title>
<polygon fill="none" stroke="black" points="70.5,-4201 70.5,-4247 361.5,-4247 361.5,-4201 70.5,-4201"/>
<text text-anchor="middle" x="133" y="-4220.3" font-family="Times,serif" font-size="14.00">input_2: InputLayer</text>
<polyline fill="none" stroke="black" points="195.5,-4201 195.5,-4247 "/>
<text text-anchor="middle" x="223" y="-4231.8" font-family="Times,serif" font-size="14.00">input:</text>
<polyline fill="none" stroke="black" points="195.5,-4224 250.5,-4224 "/>
<text text-anchor="middle" x="223" y="-4208.8" font-family="Times,serif" font-size="14.00">output:</text>
<polyline fill="none" stroke="black" points="250.5,-4201 250.5,-4247 "/>
<text text-anchor="middle" x="306" y="-4231.8" font-family="Times,serif" font-size="14.00">(None, 32, 32, 3)</text>
<polyline fill="none" stroke="black" points="250.5,-4224 361.5,-4224 "/>
<text text-anchor="middle" x="306" y="-4208.8" font-family="Times,serif" font-size="14.00">(None, 32, 32, 3)</text>
</g>
<!-- 140518633949224 -->
<g id="node2" class="node"><title>140518633949224</title>
<polygon fill="none" stroke="black" points="37,-4117 37,-4163 395,-4163 395,-4117 37,-4117"/>
<text text-anchor="middle" x="129.5" y="-4136.3" font-family="Times,serif" font-size="14.00">block1_conv1: Convolution2D</text>
<polyline fill="none" stroke="black" points="222,-4117 222,-4163 "/>
<text text-anchor="middle" x="249.5" y="-4147.8" font-family="Times,serif" font-size="14.00">input:</text>
<polyline fill="none" stroke="black" points="222,-4140 277,-4140 "/>
<text text-anchor="middle" x="249.5" y="-4124.8" font-family="Times,serif" font-size="14.00">output:</text>
<polyline fill="none" stroke="black" points="277,-4117 277,-4163 "/>
<text text-anchor="middle" x="336" y="-4147.8" font-family="Times,serif" font-size="14.00">(None, 32, 32, 3)</text>
<polyline fill="none" stroke="black" points="277,-4140 395,-4140 "/>
<text text-anchor="middle" x="336" y="-4124.8" font-family="Times,serif" font-size="14.00">(None, 32, 32, 64)</text>
</g>
<!-- 140518633950008&#45;&gt;140518633949224 -->
<g id="edge1" class="edge"><title>140518633950008&#45;&gt;140518633949224</title>
<path fill="none" stroke="black" d="M216,-4200.59C216,-4192.12 216,-4182.3 216,-4173.1"/>
<polygon fill="black" stroke="black" points="219.5,-4173.1 216,-4163.1 212.5,-4173.1 219.5,-4173.1"/>
</g>
<!-- 140518634116544 -->
<g id="node3" class="node"><title>140518634116544</title>
<polygon fill="none" stroke="black" points="3,-4033 3,-4079 429,-4079 429,-4033 3,-4033"/>
<text text-anchor="middle" x="129.5" y="-4052.3" font-family="Times,serif" font-size="14.00">batchnormalization_1: BatchNormalization</text>
<polyline fill="none" stroke="black" points="256,-4033 256,-4079 "/>
<text text-anchor="middle" x="283.5" y="-4063.8" font-family="Times,serif" font-size="14.00">input:</text>
<polyline fill="none" stroke="black" points="256,-4056 311,-4056 "/>
<text text-anchor="middle" x="283.5" y="-4040.8" font-family="Times,serif" font-size="14.00">output:</text>
<polyline fill="none" stroke="black" points="311,-4033 311,-4079 "/>
<text text-anchor="middle" x="370" y="-4063.8" font-family="Times,serif" font-size="14.00">(None, 32, 32, 64)</text>
<polyline fill="none" stroke="black" points="311,-4056 429,-4056 "/>
<text text-anchor="middle" x="370" y="-4040.8" font-family="Times,serif" font-size="14.00">(None, 32, 32, 64)</text>
</g>
<!-- 140518633949224&#45;&gt;140518634116544 -->
<g id="edge2" class="edge"><title>140518633949224&#45;&gt;140518634116544</title>
<path fill="none" stroke="black" d="M216,-4116.59C216,-4108.12 216,-4098.3 216,-4089.1"/>
<polygon fill="black" stroke="black" points="219.5,-4089.1 216,-4079.1 212.5,-4089.1 219.5,-4089.1"/>
</g>
<!-- 140518634186288 -->
<g id="node4" class="node"><title>140518634186288</title>
<polygon fill="none" stroke="black" points="55.5,-3949 55.5,-3995 376.5,-3995 376.5,-3949 55.5,-3949"/>
<text text-anchor="middle" x="129.5" y="-3968.3" font-family="Times,serif" font-size="14.00">activation_1: Activation</text>
<polyline fill="none" stroke="black" points="203.5,-3949 203.5,-3995 "/>
<text text-anchor="middle" x="231" y="-3979.8" font-family="Times,serif" font-size="14.00">input:</text>
<polyline fill="none" stroke="black" points="203.5,-3972 258.5,-3972 "/>
<text text-anchor="middle" x="231" y="-3956.8" font-family="Times,serif" font-size="14.00">output:</text>
<polyline fill="none" stroke="black" points="258.5,-3949 258.5,-3995 "/>
<text text-anchor="middle" x="317.5" y="-3979.8" font-family="Times,serif" font-size="14.00">(None, 32, 32, 64)</text>
<polyline fill="none" stroke="black" points="258.5,-3972 376.5,-3972 "/>
<text text-anchor="middle" x="317.5" y="-3956.8" font-family="Times,serif" font-size="14.00">(None, 32, 32, 64)</text>
</g>
<!-- 140518634116544&#45;&gt;140518634186288 -->
<g id="edge3" class="edge"><title>140518634116544&#45;&gt;140518634186288</title>
<path fill="none" stroke="black" d="M216,-4032.59C216,-4024.12 216,-4014.3 216,-4005.1"/>
<polygon fill="black" stroke="black" points="219.5,-4005.1 216,-3995.1 212.5,-4005.1 219.5,-4005.1"/>
</g>
<!-- 140518637061232 -->
<g id="node5" class="node"><title>140518637061232</title>
<polygon fill="none" stroke="black" points="67,-3865 67,-3911 365,-3911 365,-3865 67,-3865"/>
<text text-anchor="middle" x="129.5" y="-3884.3" font-family="Times,serif" font-size="14.00">dropout_1: Dropout</text>
<polyline fill="none" stroke="black" points="192,-3865 192,-3911 "/>
<text text-anchor="middle" x="219.5" y="-3895.8" font-family="Times,serif" font-size="14.00">input:</text>
<polyline fill="none" stroke="black" points="192,-3888 247,-3888 "/>
<text text-anchor="middle" x="219.5" y="-3872.8" font-family="Times,serif" font-size="14.00">output:</text>
<polyline fill="none" stroke="black" points="247,-3865 247,-3911 "/>
<text text-anchor="middle" x="306" y="-3895.8" font-family="Times,serif" font-size="14.00">(None, 32, 32, 64)</text>
<polyline fill="none" stroke="black" points="247,-3888 365,-3888 "/>
<text text-anchor="middle" x="306" y="-3872.8" font-family="Times,serif" font-size="14.00">(None, 32, 32, 64)</text>
</g>
<!-- 140518634186288&#45;&gt;140518637061232 -->
<g id="edge4" class="edge"><title>140518634186288&#45;&gt;140518637061232</title>
<path fill="none" stroke="black" d="M216,-3948.59C216,-3940.12 216,-3930.3 216,-3921.1"/>
<polygon fill="black" stroke="black" points="219.5,-3921.1 216,-3911.1 212.5,-3921.1 219.5,-3921.1"/>
</g>
<!-- 140518636861648 -->
<g id="node6" class="node"><title>140518636861648</title>
<polygon fill="none" stroke="black" points="37,-3781 37,-3827 395,-3827 395,-3781 37,-3781"/>
<text text-anchor="middle" x="129.5" y="-3800.3" font-family="Times,serif" font-size="14.00">block1_conv2: Convolution2D</text>
<polyline fill="none" stroke="black" points="222,-3781 222,-3827 "/>
<text text-anchor="middle" x="249.5" y="-3811.8" font-family="Times,serif" font-size="14.00">input:</text>
<polyline fill="none" stroke="black" points="222,-3804 277,-3804 "/>
<text text-anchor="middle" x="249.5" y="-3788.8" font-family="Times,serif" font-size="14.00">output:</text>
<polyline fill="none" stroke="black" points="277,-3781 277,-3827 "/>
<text text-anchor="middle" x="336" y="-3811.8" font-family="Times,serif" font-size="14.00">(None, 32, 32, 64)</text>
<polyline fill="none" stroke="black" points="277,-3804 395,-3804 "/>
<text text-anchor="middle" x="336" y="-3788.8" font-family="Times,serif" font-size="14.00">(None, 32, 32, 64)</text>
</g>
<!-- 140518637061232&#45;&gt;140518636861648 -->
<g id="edge5" class="edge"><title>140518637061232&#45;&gt;140518636861648</title>
<path fill="none" stroke="black" d="M216,-3864.59C216,-3856.12 216,-3846.3 216,-3837.1"/>
<polygon fill="black" stroke="black" points="219.5,-3837.1 216,-3827.1 212.5,-3837.1 219.5,-3837.1"/>
</g>
<!-- 140518636785336 -->
<g id="node7" class="node"><title>140518636785336</title>
<polygon fill="none" stroke="black" points="3,-3697 3,-3743 429,-3743 429,-3697 3,-3697"/>
<text text-anchor="middle" x="129.5" y="-3716.3" font-family="Times,serif" font-size="14.00">batchnormalization_2: BatchNormalization</text>
<polyline fill="none" stroke="black" points="256,-3697 256,-3743 "/>
<text text-anchor="middle" x="283.5" y="-3727.8" font-family="Times,serif" font-size="14.00">input:</text>
<polyline fill="none" stroke="black" points="256,-3720 311,-3720 "/>
<text text-anchor="middle" x="283.5" y="-3704.8" font-family="Times,serif" font-size="14.00">output:</text>
<polyline fill="none" stroke="black" points="311,-3697 311,-3743 "/>
<text text-anchor="middle" x="370" y="-3727.8" font-family="Times,serif" font-size="14.00">(None, 32, 32, 64)</text>
<polyline fill="none" stroke="black" points="311,-3720 429,-3720 "/>
<text text-anchor="middle" x="370" y="-3704.8" font-family="Times,serif" font-size="14.00">(None, 32, 32, 64)</text>
</g>
<!-- 140518636861648&#45;&gt;140518636785336 -->
<g id="edge6" class="edge"><title>140518636861648&#45;&gt;140518636785336</title>
<path fill="none" stroke="black" d="M216,-3780.59C216,-3772.12 216,-3762.3 216,-3753.1"/>
<polygon fill="black" stroke="black" points="219.5,-3753.1 216,-3743.1 212.5,-3753.1 219.5,-3753.1"/>
</g>
<!-- 140518636474264 -->
<g id="node8" class="node"><title>140518636474264</title>
<polygon fill="none" stroke="black" points="55.5,-3613 55.5,-3659 376.5,-3659 376.5,-3613 55.5,-3613"/>
<text text-anchor="middle" x="129.5" y="-3632.3" font-family="Times,serif" font-size="14.00">activation_2: Activation</text>
<polyline fill="none" stroke="black" points="203.5,-3613 203.5,-3659 "/>
<text text-anchor="middle" x="231" y="-3643.8" font-family="Times,serif" font-size="14.00">input:</text>
<polyline fill="none" stroke="black" points="203.5,-3636 258.5,-3636 "/>
<text text-anchor="middle" x="231" y="-3620.8" font-family="Times,serif" font-size="14.00">output:</text>
<polyline fill="none" stroke="black" points="258.5,-3613 258.5,-3659 "/>
<text text-anchor="middle" x="317.5" y="-3643.8" font-family="Times,serif" font-size="14.00">(None, 32, 32, 64)</text>
<polyline fill="none" stroke="black" points="258.5,-3636 376.5,-3636 "/>
<text text-anchor="middle" x="317.5" y="-3620.8" font-family="Times,serif" font-size="14.00">(None, 32, 32, 64)</text>
</g>
<!-- 140518636785336&#45;&gt;140518636474264 -->
<g id="edge7" class="edge"><title>140518636785336&#45;&gt;140518636474264</title>
<path fill="none" stroke="black" d="M216,-3696.59C216,-3688.12 216,-3678.3 216,-3669.1"/>
<polygon fill="black" stroke="black" points="219.5,-3669.1 216,-3659.1 212.5,-3669.1 219.5,-3669.1"/>
</g>
<!-- 140518636473424 -->
<g id="node9" class="node"><title>140518636473424</title>
<polygon fill="none" stroke="black" points="67,-3529 67,-3575 365,-3575 365,-3529 67,-3529"/>
<text text-anchor="middle" x="129.5" y="-3548.3" font-family="Times,serif" font-size="14.00">dropout_2: Dropout</text>
<polyline fill="none" stroke="black" points="192,-3529 192,-3575 "/>
<text text-anchor="middle" x="219.5" y="-3559.8" font-family="Times,serif" font-size="14.00">input:</text>
<polyline fill="none" stroke="black" points="192,-3552 247,-3552 "/>
<text text-anchor="middle" x="219.5" y="-3536.8" font-family="Times,serif" font-size="14.00">output:</text>
<polyline fill="none" stroke="black" points="247,-3529 247,-3575 "/>
<text text-anchor="middle" x="306" y="-3559.8" font-family="Times,serif" font-size="14.00">(None, 32, 32, 64)</text>
<polyline fill="none" stroke="black" points="247,-3552 365,-3552 "/>
<text text-anchor="middle" x="306" y="-3536.8" font-family="Times,serif" font-size="14.00">(None, 32, 32, 64)</text>
</g>
<!-- 140518636474264&#45;&gt;140518636473424 -->
<g id="edge8" class="edge"><title>140518636474264&#45;&gt;140518636473424</title>
<path fill="none" stroke="black" d="M216,-3612.59C216,-3604.12 216,-3594.3 216,-3585.1"/>
<polygon fill="black" stroke="black" points="219.5,-3585.1 216,-3575.1 212.5,-3585.1 219.5,-3585.1"/>
</g>
<!-- 140518636473816 -->
<g id="node10" class="node"><title>140518636473816</title>
<polygon fill="none" stroke="black" points="41.5,-3445 41.5,-3491 390.5,-3491 390.5,-3445 41.5,-3445"/>
<text text-anchor="middle" x="129.5" y="-3464.3" font-family="Times,serif" font-size="14.00">block1_pool: MaxPooling2D</text>
<polyline fill="none" stroke="black" points="217.5,-3445 217.5,-3491 "/>
<text text-anchor="middle" x="245" y="-3475.8" font-family="Times,serif" font-size="14.00">input:</text>
<polyline fill="none" stroke="black" points="217.5,-3468 272.5,-3468 "/>
<text text-anchor="middle" x="245" y="-3452.8" font-family="Times,serif" font-size="14.00">output:</text>
<polyline fill="none" stroke="black" points="272.5,-3445 272.5,-3491 "/>
<text text-anchor="middle" x="331.5" y="-3475.8" font-family="Times,serif" font-size="14.00">(None, 32, 32, 64)</text>
<polyline fill="none" stroke="black" points="272.5,-3468 390.5,-3468 "/>
<text text-anchor="middle" x="331.5" y="-3452.8" font-family="Times,serif" font-size="14.00">(None, 16, 16, 64)</text>
</g>
<!-- 140518636473424&#45;&gt;140518636473816 -->
<g id="edge9" class="edge"><title>140518636473424&#45;&gt;140518636473816</title>
<path fill="none" stroke="black" d="M216,-3528.59C216,-3520.12 216,-3510.3 216,-3501.1"/>
<polygon fill="black" stroke="black" points="219.5,-3501.1 216,-3491.1 212.5,-3501.1 219.5,-3501.1"/>
</g>
<!-- 140518635606480 -->
<g id="node11" class="node"><title>140518635606480</title>
<polygon fill="none" stroke="black" points="33.5,-3361 33.5,-3407 398.5,-3407 398.5,-3361 33.5,-3361"/>
<text text-anchor="middle" x="126" y="-3380.3" font-family="Times,serif" font-size="14.00">block2_conv1: Convolution2D</text>
<polyline fill="none" stroke="black" points="218.5,-3361 218.5,-3407 "/>
<text text-anchor="middle" x="246" y="-3391.8" font-family="Times,serif" font-size="14.00">input:</text>
<polyline fill="none" stroke="black" points="218.5,-3384 273.5,-3384 "/>
<text text-anchor="middle" x="246" y="-3368.8" font-family="Times,serif" font-size="14.00">output:</text>
<polyline fill="none" stroke="black" points="273.5,-3361 273.5,-3407 "/>
<text text-anchor="middle" x="336" y="-3391.8" font-family="Times,serif" font-size="14.00">(None, 16, 16, 64)</text>
<polyline fill="none" stroke="black" points="273.5,-3384 398.5,-3384 "/>
<text text-anchor="middle" x="336" y="-3368.8" font-family="Times,serif" font-size="14.00">(None, 16, 16, 128)</text>
</g>
<!-- 140518636473816&#45;&gt;140518635606480 -->
<g id="edge10" class="edge"><title>140518636473816&#45;&gt;140518635606480</title>
<path fill="none" stroke="black" d="M216,-3444.59C216,-3436.12 216,-3426.3 216,-3417.1"/>
<polygon fill="black" stroke="black" points="219.5,-3417.1 216,-3407.1 212.5,-3417.1 219.5,-3417.1"/>
</g>
<!-- 140518635771216 -->
<g id="node12" class="node"><title>140518635771216</title>
<polygon fill="none" stroke="black" points="-0.5,-3277 -0.5,-3323 432.5,-3323 432.5,-3277 -0.5,-3277"/>
<text text-anchor="middle" x="126" y="-3296.3" font-family="Times,serif" font-size="14.00">batchnormalization_3: BatchNormalization</text>
<polyline fill="none" stroke="black" points="252.5,-3277 252.5,-3323 "/>
<text text-anchor="middle" x="280" y="-3307.8" font-family="Times,serif" font-size="14.00">input:</text>
<polyline fill="none" stroke="black" points="252.5,-3300 307.5,-3300 "/>
<text text-anchor="middle" x="280" y="-3284.8" font-family="Times,serif" font-size="14.00">output:</text>
<polyline fill="none" stroke="black" points="307.5,-3277 307.5,-3323 "/>
<text text-anchor="middle" x="370" y="-3307.8" font-family="Times,serif" font-size="14.00">(None, 16, 16, 128)</text>
<polyline fill="none" stroke="black" points="307.5,-3300 432.5,-3300 "/>
<text text-anchor="middle" x="370" y="-3284.8" font-family="Times,serif" font-size="14.00">(None, 16, 16, 128)</text>
</g>
<!-- 140518635606480&#45;&gt;140518635771216 -->
<g id="edge11" class="edge"><title>140518635606480&#45;&gt;140518635771216</title>
<path fill="none" stroke="black" d="M216,-3360.59C216,-3352.12 216,-3342.3 216,-3333.1"/>
<polygon fill="black" stroke="black" points="219.5,-3333.1 216,-3323.1 212.5,-3333.1 219.5,-3333.1"/>
</g>
<!-- 140518635413456 -->
<g id="node13" class="node"><title>140518635413456</title>
<polygon fill="none" stroke="black" points="52,-3193 52,-3239 380,-3239 380,-3193 52,-3193"/>
<text text-anchor="middle" x="126" y="-3212.3" font-family="Times,serif" font-size="14.00">activation_3: Activation</text>
<polyline fill="none" stroke="black" points="200,-3193 200,-3239 "/>
<text text-anchor="middle" x="227.5" y="-3223.8" font-family="Times,serif" font-size="14.00">input:</text>
<polyline fill="none" stroke="black" points="200,-3216 255,-3216 "/>
<text text-anchor="middle" x="227.5" y="-3200.8" font-family="Times,serif" font-size="14.00">output:</text>
<polyline fill="none" stroke="black" points="255,-3193 255,-3239 "/>
<text text-anchor="middle" x="317.5" y="-3223.8" font-family="Times,serif" font-size="14.00">(None, 16, 16, 128)</text>
<polyline fill="none" stroke="black" points="255,-3216 380,-3216 "/>
<text text-anchor="middle" x="317.5" y="-3200.8" font-family="Times,serif" font-size="14.00">(None, 16, 16, 128)</text>
</g>
<!-- 140518635771216&#45;&gt;140518635413456 -->
<g id="edge12" class="edge"><title>140518635771216&#45;&gt;140518635413456</title>
<path fill="none" stroke="black" d="M216,-3276.59C216,-3268.12 216,-3258.3 216,-3249.1"/>
<polygon fill="black" stroke="black" points="219.5,-3249.1 216,-3239.1 212.5,-3249.1 219.5,-3249.1"/>
</g>
<!-- 140518634773976 -->
<g id="node14" class="node"><title>140518634773976</title>
<polygon fill="none" stroke="black" points="63.5,-3109 63.5,-3155 368.5,-3155 368.5,-3109 63.5,-3109"/>
<text text-anchor="middle" x="126" y="-3128.3" font-family="Times,serif" font-size="14.00">dropout_3: Dropout</text>
<polyline fill="none" stroke="black" points="188.5,-3109 188.5,-3155 "/>
<text text-anchor="middle" x="216" y="-3139.8" font-family="Times,serif" font-size="14.00">input:</text>
<polyline fill="none" stroke="black" points="188.5,-3132 243.5,-3132 "/>
<text text-anchor="middle" x="216" y="-3116.8" font-family="Times,serif" font-size="14.00">output:</text>
<polyline fill="none" stroke="black" points="243.5,-3109 243.5,-3155 "/>
<text text-anchor="middle" x="306" y="-3139.8" font-family="Times,serif" font-size="14.00">(None, 16, 16, 128)</text>
<polyline fill="none" stroke="black" points="243.5,-3132 368.5,-3132 "/>
<text text-anchor="middle" x="306" y="-3116.8" font-family="Times,serif" font-size="14.00">(None, 16, 16, 128)</text>
</g>
<!-- 140518635413456&#45;&gt;140518634773976 -->
<g id="edge13" class="edge"><title>140518635413456&#45;&gt;140518634773976</title>
<path fill="none" stroke="black" d="M216,-3192.59C216,-3184.12 216,-3174.3 216,-3165.1"/>
<polygon fill="black" stroke="black" points="219.5,-3165.1 216,-3155.1 212.5,-3165.1 219.5,-3165.1"/>
</g>
<!-- 140518635121632 -->
<g id="node15" class="node"><title>140518635121632</title>
<polygon fill="none" stroke="black" points="33.5,-3025 33.5,-3071 398.5,-3071 398.5,-3025 33.5,-3025"/>
<text text-anchor="middle" x="126" y="-3044.3" font-family="Times,serif" font-size="14.00">block2_conv2: Convolution2D</text>
<polyline fill="none" stroke="black" points="218.5,-3025 218.5,-3071 "/>
<text text-anchor="middle" x="246" y="-3055.8" font-family="Times,serif" font-size="14.00">input:</text>
<polyline fill="none" stroke="black" points="218.5,-3048 273.5,-3048 "/>
<text text-anchor="middle" x="246" y="-3032.8" font-family="Times,serif" font-size="14.00">output:</text>
<polyline fill="none" stroke="black" points="273.5,-3025 273.5,-3071 "/>
<text text-anchor="middle" x="336" y="-3055.8" font-family="Times,serif" font-size="14.00">(None, 16, 16, 128)</text>
<polyline fill="none" stroke="black" points="273.5,-3048 398.5,-3048 "/>
<text text-anchor="middle" x="336" y="-3032.8" font-family="Times,serif" font-size="14.00">(None, 16, 16, 128)</text>
</g>
<!-- 140518634773976&#45;&gt;140518635121632 -->
<g id="edge14" class="edge"><title>140518634773976&#45;&gt;140518635121632</title>
<path fill="none" stroke="black" d="M216,-3108.59C216,-3100.12 216,-3090.3 216,-3081.1"/>
<polygon fill="black" stroke="black" points="219.5,-3081.1 216,-3071.1 212.5,-3081.1 219.5,-3081.1"/>
</g>
<!-- 140518634342496 -->
<g id="node16" class="node"><title>140518634342496</title>
<polygon fill="none" stroke="black" points="-0.5,-2941 -0.5,-2987 432.5,-2987 432.5,-2941 -0.5,-2941"/>
<text text-anchor="middle" x="126" y="-2960.3" font-family="Times,serif" font-size="14.00">batchnormalization_4: BatchNormalization</text>
<polyline fill="none" stroke="black" points="252.5,-2941 252.5,-2987 "/>
<text text-anchor="middle" x="280" y="-2971.8" font-family="Times,serif" font-size="14.00">input:</text>
<polyline fill="none" stroke="black" points="252.5,-2964 307.5,-2964 "/>
<text text-anchor="middle" x="280" y="-2948.8" font-family="Times,serif" font-size="14.00">output:</text>
<polyline fill="none" stroke="black" points="307.5,-2941 307.5,-2987 "/>
<text text-anchor="middle" x="370" y="-2971.8" font-family="Times,serif" font-size="14.00">(None, 16, 16, 128)</text>
<polyline fill="none" stroke="black" points="307.5,-2964 432.5,-2964 "/>
<text text-anchor="middle" x="370" y="-2948.8" font-family="Times,serif" font-size="14.00">(None, 16, 16, 128)</text>
</g>
<!-- 140518635121632&#45;&gt;140518634342496 -->
<g id="edge15" class="edge"><title>140518635121632&#45;&gt;140518634342496</title>
<path fill="none" stroke="black" d="M216,-3024.59C216,-3016.12 216,-3006.3 216,-2997.1"/>
<polygon fill="black" stroke="black" points="219.5,-2997.1 216,-2987.1 212.5,-2997.1 219.5,-2997.1"/>
</g>
<!-- 140518634420600 -->
<g id="node17" class="node"><title>140518634420600</title>
<polygon fill="none" stroke="black" points="52,-2857 52,-2903 380,-2903 380,-2857 52,-2857"/>
<text text-anchor="middle" x="126" y="-2876.3" font-family="Times,serif" font-size="14.00">activation_4: Activation</text>
<polyline fill="none" stroke="black" points="200,-2857 200,-2903 "/>
<text text-anchor="middle" x="227.5" y="-2887.8" font-family="Times,serif" font-size="14.00">input:</text>
<polyline fill="none" stroke="black" points="200,-2880 255,-2880 "/>
<text text-anchor="middle" x="227.5" y="-2864.8" font-family="Times,serif" font-size="14.00">output:</text>
<polyline fill="none" stroke="black" points="255,-2857 255,-2903 "/>
<text text-anchor="middle" x="317.5" y="-2887.8" font-family="Times,serif" font-size="14.00">(None, 16, 16, 128)</text>
<polyline fill="none" stroke="black" points="255,-2880 380,-2880 "/>
<text text-anchor="middle" x="317.5" y="-2864.8" font-family="Times,serif" font-size="14.00">(None, 16, 16, 128)</text>
</g>
<!-- 140518634342496&#45;&gt;140518634420600 -->
<g id="edge16" class="edge"><title>140518634342496&#45;&gt;140518634420600</title>
<path fill="none" stroke="black" d="M216,-2940.59C216,-2932.12 216,-2922.3 216,-2913.1"/>
<polygon fill="black" stroke="black" points="219.5,-2913.1 216,-2903.1 212.5,-2913.1 219.5,-2913.1"/>
</g>
<!-- 140518634421160 -->
<g id="node18" class="node"><title>140518634421160</title>
<polygon fill="none" stroke="black" points="63.5,-2773 63.5,-2819 368.5,-2819 368.5,-2773 63.5,-2773"/>
<text text-anchor="middle" x="126" y="-2792.3" font-family="Times,serif" font-size="14.00">dropout_4: Dropout</text>
<polyline fill="none" stroke="black" points="188.5,-2773 188.5,-2819 "/>
<text text-anchor="middle" x="216" y="-2803.8" font-family="Times,serif" font-size="14.00">input:</text>
<polyline fill="none" stroke="black" points="188.5,-2796 243.5,-2796 "/>
<text text-anchor="middle" x="216" y="-2780.8" font-family="Times,serif" font-size="14.00">output:</text>
<polyline fill="none" stroke="black" points="243.5,-2773 243.5,-2819 "/>
<text text-anchor="middle" x="306" y="-2803.8" font-family="Times,serif" font-size="14.00">(None, 16, 16, 128)</text>
<polyline fill="none" stroke="black" points="243.5,-2796 368.5,-2796 "/>
<text text-anchor="middle" x="306" y="-2780.8" font-family="Times,serif" font-size="14.00">(None, 16, 16, 128)</text>
</g>
<!-- 140518634420600&#45;&gt;140518634421160 -->
<g id="edge17" class="edge"><title>140518634420600&#45;&gt;140518634421160</title>
<path fill="none" stroke="black" d="M216,-2856.59C216,-2848.12 216,-2838.3 216,-2829.1"/>
<polygon fill="black" stroke="black" points="219.5,-2829.1 216,-2819.1 212.5,-2829.1 219.5,-2829.1"/>
</g>
<!-- 140518633158920 -->
<g id="node19" class="node"><title>140518633158920</title>
<polygon fill="none" stroke="black" points="38,-2689 38,-2735 394,-2735 394,-2689 38,-2689"/>
<text text-anchor="middle" x="126" y="-2708.3" font-family="Times,serif" font-size="14.00">block2_pool: MaxPooling2D</text>
<polyline fill="none" stroke="black" points="214,-2689 214,-2735 "/>
<text text-anchor="middle" x="241.5" y="-2719.8" font-family="Times,serif" font-size="14.00">input:</text>
<polyline fill="none" stroke="black" points="214,-2712 269,-2712 "/>
<text text-anchor="middle" x="241.5" y="-2696.8" font-family="Times,serif" font-size="14.00">output:</text>
<polyline fill="none" stroke="black" points="269,-2689 269,-2735 "/>
<text text-anchor="middle" x="331.5" y="-2719.8" font-family="Times,serif" font-size="14.00">(None, 16, 16, 128)</text>
<polyline fill="none" stroke="black" points="269,-2712 394,-2712 "/>
<text text-anchor="middle" x="331.5" y="-2696.8" font-family="Times,serif" font-size="14.00">(None, 8, 8, 128)</text>
</g>
<!-- 140518634421160&#45;&gt;140518633158920 -->
<g id="edge18" class="edge"><title>140518634421160&#45;&gt;140518633158920</title>
<path fill="none" stroke="black" d="M216,-2772.59C216,-2764.12 216,-2754.3 216,-2745.1"/>
<polygon fill="black" stroke="black" points="219.5,-2745.1 216,-2735.1 212.5,-2745.1 219.5,-2745.1"/>
</g>
<!-- 140518633191632 -->
<g id="node20" class="node"><title>140518633191632</title>
<polygon fill="none" stroke="black" points="40.5,-2605 40.5,-2651 391.5,-2651 391.5,-2605 40.5,-2605"/>
<text text-anchor="middle" x="133" y="-2624.3" font-family="Times,serif" font-size="14.00">block3_conv1: Convolution2D</text>
<polyline fill="none" stroke="black" points="225.5,-2605 225.5,-2651 "/>
<text text-anchor="middle" x="253" y="-2635.8" font-family="Times,serif" font-size="14.00">input:</text>
<polyline fill="none" stroke="black" points="225.5,-2628 280.5,-2628 "/>
<text text-anchor="middle" x="253" y="-2612.8" font-family="Times,serif" font-size="14.00">output:</text>
<polyline fill="none" stroke="black" points="280.5,-2605 280.5,-2651 "/>
<text text-anchor="middle" x="336" y="-2635.8" font-family="Times,serif" font-size="14.00">(None, 8, 8, 128)</text>
<polyline fill="none" stroke="black" points="280.5,-2628 391.5,-2628 "/>
<text text-anchor="middle" x="336" y="-2612.8" font-family="Times,serif" font-size="14.00">(None, 8, 8, 256)</text>
</g>
<!-- 140518633158920&#45;&gt;140518633191632 -->
<g id="edge19" class="edge"><title>140518633158920&#45;&gt;140518633191632</title>
<path fill="none" stroke="black" d="M216,-2688.59C216,-2680.12 216,-2670.3 216,-2661.1"/>
<polygon fill="black" stroke="black" points="219.5,-2661.1 216,-2651.1 212.5,-2661.1 219.5,-2661.1"/>
</g>
<!-- 140518633007200 -->
<g id="node21" class="node"><title>140518633007200</title>
<polygon fill="none" stroke="black" points="6.5,-2521 6.5,-2567 425.5,-2567 425.5,-2521 6.5,-2521"/>
<text text-anchor="middle" x="133" y="-2540.3" font-family="Times,serif" font-size="14.00">batchnormalization_5: BatchNormalization</text>
<polyline fill="none" stroke="black" points="259.5,-2521 259.5,-2567 "/>
<text text-anchor="middle" x="287" y="-2551.8" font-family="Times,serif" font-size="14.00">input:</text>
<polyline fill="none" stroke="black" points="259.5,-2544 314.5,-2544 "/>
<text text-anchor="middle" x="287" y="-2528.8" font-family="Times,serif" font-size="14.00">output:</text>
<polyline fill="none" stroke="black" points="314.5,-2521 314.5,-2567 "/>
<text text-anchor="middle" x="370" y="-2551.8" font-family="Times,serif" font-size="14.00">(None, 8, 8, 256)</text>
<polyline fill="none" stroke="black" points="314.5,-2544 425.5,-2544 "/>
<text text-anchor="middle" x="370" y="-2528.8" font-family="Times,serif" font-size="14.00">(None, 8, 8, 256)</text>
</g>
<!-- 140518633191632&#45;&gt;140518633007200 -->
<g id="edge20" class="edge"><title>140518633191632&#45;&gt;140518633007200</title>
<path fill="none" stroke="black" d="M216,-2604.59C216,-2596.12 216,-2586.3 216,-2577.1"/>
<polygon fill="black" stroke="black" points="219.5,-2577.1 216,-2567.1 212.5,-2577.1 219.5,-2577.1"/>
</g>
<!-- 140518633075936 -->
<g id="node22" class="node"><title>140518633075936</title>
<polygon fill="none" stroke="black" points="59,-2437 59,-2483 373,-2483 373,-2437 59,-2437"/>
<text text-anchor="middle" x="133" y="-2456.3" font-family="Times,serif" font-size="14.00">activation_5: Activation</text>
<polyline fill="none" stroke="black" points="207,-2437 207,-2483 "/>
<text text-anchor="middle" x="234.5" y="-2467.8" font-family="Times,serif" font-size="14.00">input:</text>
<polyline fill="none" stroke="black" points="207,-2460 262,-2460 "/>
<text text-anchor="middle" x="234.5" y="-2444.8" font-family="Times,serif" font-size="14.00">output:</text>
<polyline fill="none" stroke="black" points="262,-2437 262,-2483 "/>
<text text-anchor="middle" x="317.5" y="-2467.8" font-family="Times,serif" font-size="14.00">(None, 8, 8, 256)</text>
<polyline fill="none" stroke="black" points="262,-2460 373,-2460 "/>
<text text-anchor="middle" x="317.5" y="-2444.8" font-family="Times,serif" font-size="14.00">(None, 8, 8, 256)</text>
</g>
<!-- 140518633007200&#45;&gt;140518633075936 -->
<g id="edge21" class="edge"><title>140518633007200&#45;&gt;140518633075936</title>
<path fill="none" stroke="black" d="M216,-2520.59C216,-2512.12 216,-2502.3 216,-2493.1"/>
<polygon fill="black" stroke="black" points="219.5,-2493.1 216,-2483.1 212.5,-2493.1 219.5,-2493.1"/>
</g>
<!-- 140518632495312 -->
<g id="node23" class="node"><title>140518632495312</title>
<polygon fill="none" stroke="black" points="70.5,-2353 70.5,-2399 361.5,-2399 361.5,-2353 70.5,-2353"/>
<text text-anchor="middle" x="133" y="-2372.3" font-family="Times,serif" font-size="14.00">dropout_5: Dropout</text>
<polyline fill="none" stroke="black" points="195.5,-2353 195.5,-2399 "/>
<text text-anchor="middle" x="223" y="-2383.8" font-family="Times,serif" font-size="14.00">input:</text>
<polyline fill="none" stroke="black" points="195.5,-2376 250.5,-2376 "/>
<text text-anchor="middle" x="223" y="-2360.8" font-family="Times,serif" font-size="14.00">output:</text>
<polyline fill="none" stroke="black" points="250.5,-2353 250.5,-2399 "/>
<text text-anchor="middle" x="306" y="-2383.8" font-family="Times,serif" font-size="14.00">(None, 8, 8, 256)</text>
<polyline fill="none" stroke="black" points="250.5,-2376 361.5,-2376 "/>
<text text-anchor="middle" x="306" y="-2360.8" font-family="Times,serif" font-size="14.00">(None, 8, 8, 256)</text>
</g>
<!-- 140518633075936&#45;&gt;140518632495312 -->
<g id="edge22" class="edge"><title>140518633075936&#45;&gt;140518632495312</title>
<path fill="none" stroke="black" d="M216,-2436.59C216,-2428.12 216,-2418.3 216,-2409.1"/>
<polygon fill="black" stroke="black" points="219.5,-2409.1 216,-2399.1 212.5,-2409.1 219.5,-2409.1"/>
</g>
<!-- 140518632757512 -->
<g id="node24" class="node"><title>140518632757512</title>
<polygon fill="none" stroke="black" points="40.5,-2269 40.5,-2315 391.5,-2315 391.5,-2269 40.5,-2269"/>
<text text-anchor="middle" x="133" y="-2288.3" font-family="Times,serif" font-size="14.00">block3_conv2: Convolution2D</text>
<polyline fill="none" stroke="black" points="225.5,-2269 225.5,-2315 "/>
<text text-anchor="middle" x="253" y="-2299.8" font-family="Times,serif" font-size="14.00">input:</text>
<polyline fill="none" stroke="black" points="225.5,-2292 280.5,-2292 "/>
<text text-anchor="middle" x="253" y="-2276.8" font-family="Times,serif" font-size="14.00">output:</text>
<polyline fill="none" stroke="black" points="280.5,-2269 280.5,-2315 "/>
<text text-anchor="middle" x="336" y="-2299.8" font-family="Times,serif" font-size="14.00">(None, 8, 8, 256)</text>
<polyline fill="none" stroke="black" points="280.5,-2292 391.5,-2292 "/>
<text text-anchor="middle" x="336" y="-2276.8" font-family="Times,serif" font-size="14.00">(None, 8, 8, 256)</text>
</g>
<!-- 140518632495312&#45;&gt;140518632757512 -->
<g id="edge23" class="edge"><title>140518632495312&#45;&gt;140518632757512</title>
<path fill="none" stroke="black" d="M216,-2352.59C216,-2344.12 216,-2334.3 216,-2325.1"/>
<polygon fill="black" stroke="black" points="219.5,-2325.1 216,-2315.1 212.5,-2325.1 219.5,-2325.1"/>
</g>
<!-- 140518632621000 -->
<g id="node25" class="node"><title>140518632621000</title>
<polygon fill="none" stroke="black" points="6.5,-2185 6.5,-2231 425.5,-2231 425.5,-2185 6.5,-2185"/>
<text text-anchor="middle" x="133" y="-2204.3" font-family="Times,serif" font-size="14.00">batchnormalization_6: BatchNormalization</text>
<polyline fill="none" stroke="black" points="259.5,-2185 259.5,-2231 "/>
<text text-anchor="middle" x="287" y="-2215.8" font-family="Times,serif" font-size="14.00">input:</text>
<polyline fill="none" stroke="black" points="259.5,-2208 314.5,-2208 "/>
<text text-anchor="middle" x="287" y="-2192.8" font-family="Times,serif" font-size="14.00">output:</text>
<polyline fill="none" stroke="black" points="314.5,-2185 314.5,-2231 "/>
<text text-anchor="middle" x="370" y="-2215.8" font-family="Times,serif" font-size="14.00">(None, 8, 8, 256)</text>
<polyline fill="none" stroke="black" points="314.5,-2208 425.5,-2208 "/>
<text text-anchor="middle" x="370" y="-2192.8" font-family="Times,serif" font-size="14.00">(None, 8, 8, 256)</text>
</g>
<!-- 140518632757512&#45;&gt;140518632621000 -->
<g id="edge24" class="edge"><title>140518632757512&#45;&gt;140518632621000</title>
<path fill="none" stroke="black" d="M216,-2268.59C216,-2260.12 216,-2250.3 216,-2241.1"/>
<polygon fill="black" stroke="black" points="219.5,-2241.1 216,-2231.1 212.5,-2241.1 219.5,-2241.1"/>
</g>
<!-- 140515901834408 -->
<g id="node26" class="node"><title>140515901834408</title>
<polygon fill="none" stroke="black" points="59,-2101 59,-2147 373,-2147 373,-2101 59,-2101"/>
<text text-anchor="middle" x="133" y="-2120.3" font-family="Times,serif" font-size="14.00">activation_6: Activation</text>
<polyline fill="none" stroke="black" points="207,-2101 207,-2147 "/>
<text text-anchor="middle" x="234.5" y="-2131.8" font-family="Times,serif" font-size="14.00">input:</text>
<polyline fill="none" stroke="black" points="207,-2124 262,-2124 "/>
<text text-anchor="middle" x="234.5" y="-2108.8" font-family="Times,serif" font-size="14.00">output:</text>
<polyline fill="none" stroke="black" points="262,-2101 262,-2147 "/>
<text text-anchor="middle" x="317.5" y="-2131.8" font-family="Times,serif" font-size="14.00">(None, 8, 8, 256)</text>
<polyline fill="none" stroke="black" points="262,-2124 373,-2124 "/>
<text text-anchor="middle" x="317.5" y="-2108.8" font-family="Times,serif" font-size="14.00">(None, 8, 8, 256)</text>
</g>
<!-- 140518632621000&#45;&gt;140515901834408 -->
<g id="edge25" class="edge"><title>140518632621000&#45;&gt;140515901834408</title>
<path fill="none" stroke="black" d="M216,-2184.59C216,-2176.12 216,-2166.3 216,-2157.1"/>
<polygon fill="black" stroke="black" points="219.5,-2157.1 216,-2147.1 212.5,-2157.1 219.5,-2157.1"/>
</g>
<!-- 140515901958856 -->
<g id="node27" class="node"><title>140515901958856</title>
<polygon fill="none" stroke="black" points="70.5,-2017 70.5,-2063 361.5,-2063 361.5,-2017 70.5,-2017"/>
<text text-anchor="middle" x="133" y="-2036.3" font-family="Times,serif" font-size="14.00">dropout_6: Dropout</text>
<polyline fill="none" stroke="black" points="195.5,-2017 195.5,-2063 "/>
<text text-anchor="middle" x="223" y="-2047.8" font-family="Times,serif" font-size="14.00">input:</text>
<polyline fill="none" stroke="black" points="195.5,-2040 250.5,-2040 "/>
<text text-anchor="middle" x="223" y="-2024.8" font-family="Times,serif" font-size="14.00">output:</text>
<polyline fill="none" stroke="black" points="250.5,-2017 250.5,-2063 "/>
<text text-anchor="middle" x="306" y="-2047.8" font-family="Times,serif" font-size="14.00">(None, 8, 8, 256)</text>
<polyline fill="none" stroke="black" points="250.5,-2040 361.5,-2040 "/>
<text text-anchor="middle" x="306" y="-2024.8" font-family="Times,serif" font-size="14.00">(None, 8, 8, 256)</text>
</g>
<!-- 140515901834408&#45;&gt;140515901958856 -->
<g id="edge26" class="edge"><title>140515901834408&#45;&gt;140515901958856</title>
<path fill="none" stroke="black" d="M216,-2100.59C216,-2092.12 216,-2082.3 216,-2073.1"/>
<polygon fill="black" stroke="black" points="219.5,-2073.1 216,-2063.1 212.5,-2073.1 219.5,-2073.1"/>
</g>
<!-- 140518631660680 -->
<g id="node28" class="node"><title>140518631660680</title>
<polygon fill="none" stroke="black" points="45,-1933 45,-1979 387,-1979 387,-1933 45,-1933"/>
<text text-anchor="middle" x="133" y="-1952.3" font-family="Times,serif" font-size="14.00">block3_pool: MaxPooling2D</text>
<polyline fill="none" stroke="black" points="221,-1933 221,-1979 "/>
<text text-anchor="middle" x="248.5" y="-1963.8" font-family="Times,serif" font-size="14.00">input:</text>
<polyline fill="none" stroke="black" points="221,-1956 276,-1956 "/>
<text text-anchor="middle" x="248.5" y="-1940.8" font-family="Times,serif" font-size="14.00">output:</text>
<polyline fill="none" stroke="black" points="276,-1933 276,-1979 "/>
<text text-anchor="middle" x="331.5" y="-1963.8" font-family="Times,serif" font-size="14.00">(None, 8, 8, 256)</text>
<polyline fill="none" stroke="black" points="276,-1956 387,-1956 "/>
<text text-anchor="middle" x="331.5" y="-1940.8" font-family="Times,serif" font-size="14.00">(None, 4, 4, 256)</text>
</g>
<!-- 140515901958856&#45;&gt;140518631660680 -->
<g id="edge27" class="edge"><title>140515901958856&#45;&gt;140518631660680</title>
<path fill="none" stroke="black" d="M216,-2016.59C216,-2008.12 216,-1998.3 216,-1989.1"/>
<polygon fill="black" stroke="black" points="219.5,-1989.1 216,-1979.1 212.5,-1989.1 219.5,-1989.1"/>
</g>
<!-- 140515901551280 -->
<g id="node29" class="node"><title>140515901551280</title>
<polygon fill="none" stroke="black" points="40.5,-1849 40.5,-1895 391.5,-1895 391.5,-1849 40.5,-1849"/>
<text text-anchor="middle" x="133" y="-1868.3" font-family="Times,serif" font-size="14.00">block4_conv1: Convolution2D</text>
<polyline fill="none" stroke="black" points="225.5,-1849 225.5,-1895 "/>
<text text-anchor="middle" x="253" y="-1879.8" font-family="Times,serif" font-size="14.00">input:</text>
<polyline fill="none" stroke="black" points="225.5,-1872 280.5,-1872 "/>
<text text-anchor="middle" x="253" y="-1856.8" font-family="Times,serif" font-size="14.00">output:</text>
<polyline fill="none" stroke="black" points="280.5,-1849 280.5,-1895 "/>
<text text-anchor="middle" x="336" y="-1879.8" font-family="Times,serif" font-size="14.00">(None, 4, 4, 256)</text>
<polyline fill="none" stroke="black" points="280.5,-1872 391.5,-1872 "/>
<text text-anchor="middle" x="336" y="-1856.8" font-family="Times,serif" font-size="14.00">(None, 4, 4, 256)</text>
</g>
<!-- 140518631660680&#45;&gt;140515901551280 -->
<g id="edge28" class="edge"><title>140518631660680&#45;&gt;140515901551280</title>
<path fill="none" stroke="black" d="M216,-1932.59C216,-1924.12 216,-1914.3 216,-1905.1"/>
<polygon fill="black" stroke="black" points="219.5,-1905.1 216,-1895.1 212.5,-1905.1 219.5,-1905.1"/>
</g>
<!-- 140515901196216 -->
<g id="node30" class="node"><title>140515901196216</title>
<polygon fill="none" stroke="black" points="6.5,-1765 6.5,-1811 425.5,-1811 425.5,-1765 6.5,-1765"/>
<text text-anchor="middle" x="133" y="-1784.3" font-family="Times,serif" font-size="14.00">batchnormalization_7: BatchNormalization</text>
<polyline fill="none" stroke="black" points="259.5,-1765 259.5,-1811 "/>
<text text-anchor="middle" x="287" y="-1795.8" font-family="Times,serif" font-size="14.00">input:</text>
<polyline fill="none" stroke="black" points="259.5,-1788 314.5,-1788 "/>
<text text-anchor="middle" x="287" y="-1772.8" font-family="Times,serif" font-size="14.00">output:</text>
<polyline fill="none" stroke="black" points="314.5,-1765 314.5,-1811 "/>
<text text-anchor="middle" x="370" y="-1795.8" font-family="Times,serif" font-size="14.00">(None, 4, 4, 256)</text>
<polyline fill="none" stroke="black" points="314.5,-1788 425.5,-1788 "/>
<text text-anchor="middle" x="370" y="-1772.8" font-family="Times,serif" font-size="14.00">(None, 4, 4, 256)</text>
</g>
<!-- 140515901551280&#45;&gt;140515901196216 -->
<g id="edge29" class="edge"><title>140515901551280&#45;&gt;140515901196216</title>
<path fill="none" stroke="black" d="M216,-1848.59C216,-1840.12 216,-1830.3 216,-1821.1"/>
<polygon fill="black" stroke="black" points="219.5,-1821.1 216,-1811.1 212.5,-1821.1 219.5,-1821.1"/>
</g>
<!-- 140515896867864 -->
<g id="node31" class="node"><title>140515896867864</title>
<polygon fill="none" stroke="black" points="59,-1681 59,-1727 373,-1727 373,-1681 59,-1681"/>
<text text-anchor="middle" x="133" y="-1700.3" font-family="Times,serif" font-size="14.00">activation_7: Activation</text>
<polyline fill="none" stroke="black" points="207,-1681 207,-1727 "/>
<text text-anchor="middle" x="234.5" y="-1711.8" font-family="Times,serif" font-size="14.00">input:</text>
<polyline fill="none" stroke="black" points="207,-1704 262,-1704 "/>
<text text-anchor="middle" x="234.5" y="-1688.8" font-family="Times,serif" font-size="14.00">output:</text>
<polyline fill="none" stroke="black" points="262,-1681 262,-1727 "/>
<text text-anchor="middle" x="317.5" y="-1711.8" font-family="Times,serif" font-size="14.00">(None, 4, 4, 256)</text>
<polyline fill="none" stroke="black" points="262,-1704 373,-1704 "/>
<text text-anchor="middle" x="317.5" y="-1688.8" font-family="Times,serif" font-size="14.00">(None, 4, 4, 256)</text>
</g>
<!-- 140515901196216&#45;&gt;140515896867864 -->
<g id="edge30" class="edge"><title>140515901196216&#45;&gt;140515896867864</title>
<path fill="none" stroke="black" d="M216,-1764.59C216,-1756.12 216,-1746.3 216,-1737.1"/>
<polygon fill="black" stroke="black" points="219.5,-1737.1 216,-1727.1 212.5,-1737.1 219.5,-1737.1"/>
</g>
<!-- 140515901393160 -->
<g id="node32" class="node"><title>140515901393160</title>
<polygon fill="none" stroke="black" points="70.5,-1597 70.5,-1643 361.5,-1643 361.5,-1597 70.5,-1597"/>
<text text-anchor="middle" x="133" y="-1616.3" font-family="Times,serif" font-size="14.00">dropout_7: Dropout</text>
<polyline fill="none" stroke="black" points="195.5,-1597 195.5,-1643 "/>
<text text-anchor="middle" x="223" y="-1627.8" font-family="Times,serif" font-size="14.00">input:</text>
<polyline fill="none" stroke="black" points="195.5,-1620 250.5,-1620 "/>
<text text-anchor="middle" x="223" y="-1604.8" font-family="Times,serif" font-size="14.00">output:</text>
<polyline fill="none" stroke="black" points="250.5,-1597 250.5,-1643 "/>
<text text-anchor="middle" x="306" y="-1627.8" font-family="Times,serif" font-size="14.00">(None, 4, 4, 256)</text>
<polyline fill="none" stroke="black" points="250.5,-1620 361.5,-1620 "/>
<text text-anchor="middle" x="306" y="-1604.8" font-family="Times,serif" font-size="14.00">(None, 4, 4, 256)</text>
</g>
<!-- 140515896867864&#45;&gt;140515901393160 -->
<g id="edge31" class="edge"><title>140515896867864&#45;&gt;140515901393160</title>
<path fill="none" stroke="black" d="M216,-1680.59C216,-1672.12 216,-1662.3 216,-1653.1"/>
<polygon fill="black" stroke="black" points="219.5,-1653.1 216,-1643.1 212.5,-1653.1 219.5,-1653.1"/>
</g>
<!-- 140515901425368 -->
<g id="node33" class="node"><title>140515901425368</title>
<polygon fill="none" stroke="black" points="40.5,-1513 40.5,-1559 391.5,-1559 391.5,-1513 40.5,-1513"/>
<text text-anchor="middle" x="133" y="-1532.3" font-family="Times,serif" font-size="14.00">block4_conv2: Convolution2D</text>
<polyline fill="none" stroke="black" points="225.5,-1513 225.5,-1559 "/>
<text text-anchor="middle" x="253" y="-1543.8" font-family="Times,serif" font-size="14.00">input:</text>
<polyline fill="none" stroke="black" points="225.5,-1536 280.5,-1536 "/>
<text text-anchor="middle" x="253" y="-1520.8" font-family="Times,serif" font-size="14.00">output:</text>
<polyline fill="none" stroke="black" points="280.5,-1513 280.5,-1559 "/>
<text text-anchor="middle" x="336" y="-1543.8" font-family="Times,serif" font-size="14.00">(None, 4, 4, 256)</text>
<polyline fill="none" stroke="black" points="280.5,-1536 391.5,-1536 "/>
<text text-anchor="middle" x="336" y="-1520.8" font-family="Times,serif" font-size="14.00">(None, 4, 4, 256)</text>
</g>
<!-- 140515901393160&#45;&gt;140515901425368 -->
<g id="edge32" class="edge"><title>140515901393160&#45;&gt;140515901425368</title>
<path fill="none" stroke="black" d="M216,-1596.59C216,-1588.12 216,-1578.3 216,-1569.1"/>
<polygon fill="black" stroke="black" points="219.5,-1569.1 216,-1559.1 212.5,-1569.1 219.5,-1569.1"/>
</g>
<!-- 140515896084464 -->
<g id="node34" class="node"><title>140515896084464</title>
<polygon fill="none" stroke="black" points="6.5,-1429 6.5,-1475 425.5,-1475 425.5,-1429 6.5,-1429"/>
<text text-anchor="middle" x="133" y="-1448.3" font-family="Times,serif" font-size="14.00">batchnormalization_8: BatchNormalization</text>
<polyline fill="none" stroke="black" points="259.5,-1429 259.5,-1475 "/>
<text text-anchor="middle" x="287" y="-1459.8" font-family="Times,serif" font-size="14.00">input:</text>
<polyline fill="none" stroke="black" points="259.5,-1452 314.5,-1452 "/>
<text text-anchor="middle" x="287" y="-1436.8" font-family="Times,serif" font-size="14.00">output:</text>
<polyline fill="none" stroke="black" points="314.5,-1429 314.5,-1475 "/>
<text text-anchor="middle" x="370" y="-1459.8" font-family="Times,serif" font-size="14.00">(None, 4, 4, 256)</text>
<polyline fill="none" stroke="black" points="314.5,-1452 425.5,-1452 "/>
<text text-anchor="middle" x="370" y="-1436.8" font-family="Times,serif" font-size="14.00">(None, 4, 4, 256)</text>
</g>
<!-- 140515901425368&#45;&gt;140515896084464 -->
<g id="edge33" class="edge"><title>140515901425368&#45;&gt;140515896084464</title>
<path fill="none" stroke="black" d="M216,-1512.59C216,-1504.12 216,-1494.3 216,-1485.1"/>
<polygon fill="black" stroke="black" points="219.5,-1485.1 216,-1475.1 212.5,-1485.1 219.5,-1485.1"/>
</g>
<!-- 140515895930440 -->
<g id="node35" class="node"><title>140515895930440</title>
<polygon fill="none" stroke="black" points="59,-1345 59,-1391 373,-1391 373,-1345 59,-1345"/>
<text text-anchor="middle" x="133" y="-1364.3" font-family="Times,serif" font-size="14.00">activation_8: Activation</text>
<polyline fill="none" stroke="black" points="207,-1345 207,-1391 "/>
<text text-anchor="middle" x="234.5" y="-1375.8" font-family="Times,serif" font-size="14.00">input:</text>
<polyline fill="none" stroke="black" points="207,-1368 262,-1368 "/>
<text text-anchor="middle" x="234.5" y="-1352.8" font-family="Times,serif" font-size="14.00">output:</text>
<polyline fill="none" stroke="black" points="262,-1345 262,-1391 "/>
<text text-anchor="middle" x="317.5" y="-1375.8" font-family="Times,serif" font-size="14.00">(None, 4, 4, 256)</text>
<polyline fill="none" stroke="black" points="262,-1368 373,-1368 "/>
<text text-anchor="middle" x="317.5" y="-1352.8" font-family="Times,serif" font-size="14.00">(None, 4, 4, 256)</text>
</g>
<!-- 140515896084464&#45;&gt;140515895930440 -->
<g id="edge34" class="edge"><title>140515896084464&#45;&gt;140515895930440</title>
<path fill="none" stroke="black" d="M216,-1428.59C216,-1420.12 216,-1410.3 216,-1401.1"/>
<polygon fill="black" stroke="black" points="219.5,-1401.1 216,-1391.1 212.5,-1401.1 219.5,-1401.1"/>
</g>
<!-- 140515896159200 -->
<g id="node36" class="node"><title>140515896159200</title>
<polygon fill="none" stroke="black" points="70.5,-1261 70.5,-1307 361.5,-1307 361.5,-1261 70.5,-1261"/>
<text text-anchor="middle" x="133" y="-1280.3" font-family="Times,serif" font-size="14.00">dropout_8: Dropout</text>
<polyline fill="none" stroke="black" points="195.5,-1261 195.5,-1307 "/>
<text text-anchor="middle" x="223" y="-1291.8" font-family="Times,serif" font-size="14.00">input:</text>
<polyline fill="none" stroke="black" points="195.5,-1284 250.5,-1284 "/>
<text text-anchor="middle" x="223" y="-1268.8" font-family="Times,serif" font-size="14.00">output:</text>
<polyline fill="none" stroke="black" points="250.5,-1261 250.5,-1307 "/>
<text text-anchor="middle" x="306" y="-1291.8" font-family="Times,serif" font-size="14.00">(None, 4, 4, 256)</text>
<polyline fill="none" stroke="black" points="250.5,-1284 361.5,-1284 "/>
<text text-anchor="middle" x="306" y="-1268.8" font-family="Times,serif" font-size="14.00">(None, 4, 4, 256)</text>
</g>
<!-- 140515895930440&#45;&gt;140515896159200 -->
<g id="edge35" class="edge"><title>140515895930440&#45;&gt;140515896159200</title>
<path fill="none" stroke="black" d="M216,-1344.59C216,-1336.12 216,-1326.3 216,-1317.1"/>
<polygon fill="black" stroke="black" points="219.5,-1317.1 216,-1307.1 212.5,-1317.1 219.5,-1317.1"/>
</g>
<!-- 140515895838648 -->
<g id="node37" class="node"><title>140515895838648</title>
<polygon fill="none" stroke="black" points="40.5,-1177 40.5,-1223 391.5,-1223 391.5,-1177 40.5,-1177"/>
<text text-anchor="middle" x="133" y="-1196.3" font-family="Times,serif" font-size="14.00">block4_conv3: Convolution2D</text>
<polyline fill="none" stroke="black" points="225.5,-1177 225.5,-1223 "/>
<text text-anchor="middle" x="253" y="-1207.8" font-family="Times,serif" font-size="14.00">input:</text>
<polyline fill="none" stroke="black" points="225.5,-1200 280.5,-1200 "/>
<text text-anchor="middle" x="253" y="-1184.8" font-family="Times,serif" font-size="14.00">output:</text>
<polyline fill="none" stroke="black" points="280.5,-1177 280.5,-1223 "/>
<text text-anchor="middle" x="336" y="-1207.8" font-family="Times,serif" font-size="14.00">(None, 4, 4, 256)</text>
<polyline fill="none" stroke="black" points="280.5,-1200 391.5,-1200 "/>
<text text-anchor="middle" x="336" y="-1184.8" font-family="Times,serif" font-size="14.00">(None, 4, 4, 256)</text>
</g>
<!-- 140515896159200&#45;&gt;140515895838648 -->
<g id="edge36" class="edge"><title>140515896159200&#45;&gt;140515895838648</title>
<path fill="none" stroke="black" d="M216,-1260.59C216,-1252.12 216,-1242.3 216,-1233.1"/>
<polygon fill="black" stroke="black" points="219.5,-1233.1 216,-1223.1 212.5,-1233.1 219.5,-1233.1"/>
</g>
<!-- 140515895021864 -->
<g id="node38" class="node"><title>140515895021864</title>
<polygon fill="none" stroke="black" points="6.5,-1093 6.5,-1139 425.5,-1139 425.5,-1093 6.5,-1093"/>
<text text-anchor="middle" x="133" y="-1112.3" font-family="Times,serif" font-size="14.00">batchnormalization_9: BatchNormalization</text>
<polyline fill="none" stroke="black" points="259.5,-1093 259.5,-1139 "/>
<text text-anchor="middle" x="287" y="-1123.8" font-family="Times,serif" font-size="14.00">input:</text>
<polyline fill="none" stroke="black" points="259.5,-1116 314.5,-1116 "/>
<text text-anchor="middle" x="287" y="-1100.8" font-family="Times,serif" font-size="14.00">output:</text>
<polyline fill="none" stroke="black" points="314.5,-1093 314.5,-1139 "/>
<text text-anchor="middle" x="370" y="-1123.8" font-family="Times,serif" font-size="14.00">(None, 4, 4, 256)</text>
<polyline fill="none" stroke="black" points="314.5,-1116 425.5,-1116 "/>
<text text-anchor="middle" x="370" y="-1100.8" font-family="Times,serif" font-size="14.00">(None, 4, 4, 256)</text>
</g>
<!-- 140515895838648&#45;&gt;140515895021864 -->
<g id="edge37" class="edge"><title>140515895838648&#45;&gt;140515895021864</title>
<path fill="none" stroke="black" d="M216,-1176.59C216,-1168.12 216,-1158.3 216,-1149.1"/>
<polygon fill="black" stroke="black" points="219.5,-1149.1 216,-1139.1 212.5,-1149.1 219.5,-1149.1"/>
</g>
<!-- 140515895092896 -->
<g id="node39" class="node"><title>140515895092896</title>
<polygon fill="none" stroke="black" points="59,-1009 59,-1055 373,-1055 373,-1009 59,-1009"/>
<text text-anchor="middle" x="133" y="-1028.3" font-family="Times,serif" font-size="14.00">activation_9: Activation</text>
<polyline fill="none" stroke="black" points="207,-1009 207,-1055 "/>
<text text-anchor="middle" x="234.5" y="-1039.8" font-family="Times,serif" font-size="14.00">input:</text>
<polyline fill="none" stroke="black" points="207,-1032 262,-1032 "/>
<text text-anchor="middle" x="234.5" y="-1016.8" font-family="Times,serif" font-size="14.00">output:</text>
<polyline fill="none" stroke="black" points="262,-1009 262,-1055 "/>
<text text-anchor="middle" x="317.5" y="-1039.8" font-family="Times,serif" font-size="14.00">(None, 4, 4, 256)</text>
<polyline fill="none" stroke="black" points="262,-1032 373,-1032 "/>
<text text-anchor="middle" x="317.5" y="-1016.8" font-family="Times,serif" font-size="14.00">(None, 4, 4, 256)</text>
</g>
<!-- 140515895021864&#45;&gt;140515895092896 -->
<g id="edge38" class="edge"><title>140515895021864&#45;&gt;140515895092896</title>
<path fill="none" stroke="black" d="M216,-1092.59C216,-1084.12 216,-1074.3 216,-1065.1"/>
<polygon fill="black" stroke="black" points="219.5,-1065.1 216,-1055.1 212.5,-1065.1 219.5,-1065.1"/>
</g>
<!-- 140515600813136 -->
<g id="node40" class="node"><title>140515600813136</title>
<polygon fill="none" stroke="black" points="70.5,-925 70.5,-971 361.5,-971 361.5,-925 70.5,-925"/>
<text text-anchor="middle" x="133" y="-944.3" font-family="Times,serif" font-size="14.00">dropout_9: Dropout</text>
<polyline fill="none" stroke="black" points="195.5,-925 195.5,-971 "/>
<text text-anchor="middle" x="223" y="-955.8" font-family="Times,serif" font-size="14.00">input:</text>
<polyline fill="none" stroke="black" points="195.5,-948 250.5,-948 "/>
<text text-anchor="middle" x="223" y="-932.8" font-family="Times,serif" font-size="14.00">output:</text>
<polyline fill="none" stroke="black" points="250.5,-925 250.5,-971 "/>
<text text-anchor="middle" x="306" y="-955.8" font-family="Times,serif" font-size="14.00">(None, 4, 4, 256)</text>
<polyline fill="none" stroke="black" points="250.5,-948 361.5,-948 "/>
<text text-anchor="middle" x="306" y="-932.8" font-family="Times,serif" font-size="14.00">(None, 4, 4, 256)</text>
</g>
<!-- 140515895092896&#45;&gt;140515600813136 -->
<g id="edge39" class="edge"><title>140515895092896&#45;&gt;140515600813136</title>
<path fill="none" stroke="black" d="M216,-1008.59C216,-1000.12 216,-990.297 216,-981.104"/>
<polygon fill="black" stroke="black" points="219.5,-981.096 216,-971.096 212.5,-981.096 219.5,-981.096"/>
</g>
<!-- 140515894889160 -->
<g id="node41" class="node"><title>140515894889160</title>
<polygon fill="none" stroke="black" points="45,-841 45,-887 387,-887 387,-841 45,-841"/>
<text text-anchor="middle" x="133" y="-860.3" font-family="Times,serif" font-size="14.00">block4_pool: MaxPooling2D</text>
<polyline fill="none" stroke="black" points="221,-841 221,-887 "/>
<text text-anchor="middle" x="248.5" y="-871.8" font-family="Times,serif" font-size="14.00">input:</text>
<polyline fill="none" stroke="black" points="221,-864 276,-864 "/>
<text text-anchor="middle" x="248.5" y="-848.8" font-family="Times,serif" font-size="14.00">output:</text>
<polyline fill="none" stroke="black" points="276,-841 276,-887 "/>
<text text-anchor="middle" x="331.5" y="-871.8" font-family="Times,serif" font-size="14.00">(None, 4, 4, 256)</text>
<polyline fill="none" stroke="black" points="276,-864 387,-864 "/>
<text text-anchor="middle" x="331.5" y="-848.8" font-family="Times,serif" font-size="14.00">(None, 2, 2, 256)</text>
</g>
<!-- 140515600813136&#45;&gt;140515894889160 -->
<g id="edge40" class="edge"><title>140515600813136&#45;&gt;140515894889160</title>
<path fill="none" stroke="black" d="M216,-924.593C216,-916.118 216,-906.297 216,-897.104"/>
<polygon fill="black" stroke="black" points="219.5,-897.096 216,-887.096 212.5,-897.096 219.5,-897.096"/>
</g>
<!-- 140515600570016 -->
<g id="node42" class="node"><title>140515600570016</title>
<polygon fill="none" stroke="black" points="85,-757 85,-803 347,-803 347,-757 85,-757"/>
<text text-anchor="middle" x="133" y="-776.3" font-family="Times,serif" font-size="14.00">flatten: Flatten</text>
<polyline fill="none" stroke="black" points="181,-757 181,-803 "/>
<text text-anchor="middle" x="208.5" y="-787.8" font-family="Times,serif" font-size="14.00">input:</text>
<polyline fill="none" stroke="black" points="181,-780 236,-780 "/>
<text text-anchor="middle" x="208.5" y="-764.8" font-family="Times,serif" font-size="14.00">output:</text>
<polyline fill="none" stroke="black" points="236,-757 236,-803 "/>
<text text-anchor="middle" x="291.5" y="-787.8" font-family="Times,serif" font-size="14.00">(None, 2, 2, 256)</text>
<polyline fill="none" stroke="black" points="236,-780 347,-780 "/>
<text text-anchor="middle" x="291.5" y="-764.8" font-family="Times,serif" font-size="14.00">(None, 1024)</text>
</g>
<!-- 140515894889160&#45;&gt;140515600570016 -->
<g id="edge41" class="edge"><title>140515894889160&#45;&gt;140515600570016</title>
<path fill="none" stroke="black" d="M216,-840.593C216,-832.118 216,-822.297 216,-813.104"/>
<polygon fill="black" stroke="black" points="219.5,-813.096 216,-803.096 212.5,-813.096 219.5,-813.096"/>
</g>
<!-- 140515600654064 -->
<g id="node43" class="node"><title>140515600654064</title>
<polygon fill="none" stroke="black" points="106.5,-673 106.5,-719 325.5,-719 325.5,-673 106.5,-673"/>
<text text-anchor="middle" x="144" y="-692.3" font-family="Times,serif" font-size="14.00">fc1: Dense</text>
<polyline fill="none" stroke="black" points="181.5,-673 181.5,-719 "/>
<text text-anchor="middle" x="209" y="-703.8" font-family="Times,serif" font-size="14.00">input:</text>
<polyline fill="none" stroke="black" points="181.5,-696 236.5,-696 "/>
<text text-anchor="middle" x="209" y="-680.8" font-family="Times,serif" font-size="14.00">output:</text>
<polyline fill="none" stroke="black" points="236.5,-673 236.5,-719 "/>
<text text-anchor="middle" x="281" y="-703.8" font-family="Times,serif" font-size="14.00">(None, 1024)</text>
<polyline fill="none" stroke="black" points="236.5,-696 325.5,-696 "/>
<text text-anchor="middle" x="281" y="-680.8" font-family="Times,serif" font-size="14.00">(None, 1024)</text>
</g>
<!-- 140515600570016&#45;&gt;140515600654064 -->
<g id="edge42" class="edge"><title>140515600570016&#45;&gt;140515600654064</title>
<path fill="none" stroke="black" d="M216,-756.593C216,-748.118 216,-738.297 216,-729.104"/>
<polygon fill="black" stroke="black" points="219.5,-729.096 216,-719.096 212.5,-729.096 219.5,-729.096"/>
</g>
<!-- 140515600293168 -->
<g id="node44" class="node"><title>140515600293168</title>
<polygon fill="none" stroke="black" points="14,-589 14,-635 418,-635 418,-589 14,-589"/>
<text text-anchor="middle" x="144" y="-608.3" font-family="Times,serif" font-size="14.00">batchnormalization_10: BatchNormalization</text>
<polyline fill="none" stroke="black" points="274,-589 274,-635 "/>
<text text-anchor="middle" x="301.5" y="-619.8" font-family="Times,serif" font-size="14.00">input:</text>
<polyline fill="none" stroke="black" points="274,-612 329,-612 "/>
<text text-anchor="middle" x="301.5" y="-596.8" font-family="Times,serif" font-size="14.00">output:</text>
<polyline fill="none" stroke="black" points="329,-589 329,-635 "/>
<text text-anchor="middle" x="373.5" y="-619.8" font-family="Times,serif" font-size="14.00">(None, 1024)</text>
<polyline fill="none" stroke="black" points="329,-612 418,-612 "/>
<text text-anchor="middle" x="373.5" y="-596.8" font-family="Times,serif" font-size="14.00">(None, 1024)</text>
</g>
<!-- 140515600654064&#45;&gt;140515600293168 -->
<g id="edge43" class="edge"><title>140515600654064&#45;&gt;140515600293168</title>
<path fill="none" stroke="black" d="M216,-672.593C216,-664.118 216,-654.297 216,-645.104"/>
<polygon fill="black" stroke="black" points="219.5,-645.096 216,-635.096 212.5,-645.096 219.5,-645.096"/>
</g>
<!-- 140515600151888 -->
<g id="node45" class="node"><title>140515600151888</title>
<polygon fill="none" stroke="black" points="66.5,-505 66.5,-551 365.5,-551 365.5,-505 66.5,-505"/>
<text text-anchor="middle" x="144" y="-524.3" font-family="Times,serif" font-size="14.00">activation_10: Activation</text>
<polyline fill="none" stroke="black" points="221.5,-505 221.5,-551 "/>
<text text-anchor="middle" x="249" y="-535.8" font-family="Times,serif" font-size="14.00">input:</text>
<polyline fill="none" stroke="black" points="221.5,-528 276.5,-528 "/>
<text text-anchor="middle" x="249" y="-512.8" font-family="Times,serif" font-size="14.00">output:</text>
<polyline fill="none" stroke="black" points="276.5,-505 276.5,-551 "/>
<text text-anchor="middle" x="321" y="-535.8" font-family="Times,serif" font-size="14.00">(None, 1024)</text>
<polyline fill="none" stroke="black" points="276.5,-528 365.5,-528 "/>
<text text-anchor="middle" x="321" y="-512.8" font-family="Times,serif" font-size="14.00">(None, 1024)</text>
</g>
<!-- 140515600293168&#45;&gt;140515600151888 -->
<g id="edge44" class="edge"><title>140515600293168&#45;&gt;140515600151888</title>
<path fill="none" stroke="black" d="M216,-588.593C216,-580.118 216,-570.297 216,-561.104"/>
<polygon fill="black" stroke="black" points="219.5,-561.096 216,-551.096 212.5,-561.096 219.5,-561.096"/>
</g>
<!-- 140515599992648 -->
<g id="node46" class="node"><title>140515599992648</title>
<polygon fill="none" stroke="black" points="78.5,-421 78.5,-467 353.5,-467 353.5,-421 78.5,-421"/>
<text text-anchor="middle" x="144" y="-440.3" font-family="Times,serif" font-size="14.00">dropout_10: Dropout</text>
<polyline fill="none" stroke="black" points="209.5,-421 209.5,-467 "/>
<text text-anchor="middle" x="237" y="-451.8" font-family="Times,serif" font-size="14.00">input:</text>
<polyline fill="none" stroke="black" points="209.5,-444 264.5,-444 "/>
<text text-anchor="middle" x="237" y="-428.8" font-family="Times,serif" font-size="14.00">output:</text>
<polyline fill="none" stroke="black" points="264.5,-421 264.5,-467 "/>
<text text-anchor="middle" x="309" y="-451.8" font-family="Times,serif" font-size="14.00">(None, 1024)</text>
<polyline fill="none" stroke="black" points="264.5,-444 353.5,-444 "/>
<text text-anchor="middle" x="309" y="-428.8" font-family="Times,serif" font-size="14.00">(None, 1024)</text>
</g>
<!-- 140515600151888&#45;&gt;140515599992648 -->
<g id="edge45" class="edge"><title>140515600151888&#45;&gt;140515599992648</title>
<path fill="none" stroke="black" d="M216,-504.593C216,-496.118 216,-486.297 216,-477.104"/>
<polygon fill="black" stroke="black" points="219.5,-477.096 216,-467.096 212.5,-477.096 219.5,-477.096"/>
</g>
<!-- 140515600023504 -->
<g id="node47" class="node"><title>140515600023504</title>
<polygon fill="none" stroke="black" points="106.5,-337 106.5,-383 325.5,-383 325.5,-337 106.5,-337"/>
<text text-anchor="middle" x="144" y="-356.3" font-family="Times,serif" font-size="14.00">fc2: Dense</text>
<polyline fill="none" stroke="black" points="181.5,-337 181.5,-383 "/>
<text text-anchor="middle" x="209" y="-367.8" font-family="Times,serif" font-size="14.00">input:</text>
<polyline fill="none" stroke="black" points="181.5,-360 236.5,-360 "/>
<text text-anchor="middle" x="209" y="-344.8" font-family="Times,serif" font-size="14.00">output:</text>
<polyline fill="none" stroke="black" points="236.5,-337 236.5,-383 "/>
<text text-anchor="middle" x="281" y="-367.8" font-family="Times,serif" font-size="14.00">(None, 1024)</text>
<polyline fill="none" stroke="black" points="236.5,-360 325.5,-360 "/>
<text text-anchor="middle" x="281" y="-344.8" font-family="Times,serif" font-size="14.00">(None, 1024)</text>
</g>
<!-- 140515599992648&#45;&gt;140515600023504 -->
<g id="edge46" class="edge"><title>140515599992648&#45;&gt;140515600023504</title>
<path fill="none" stroke="black" d="M216,-420.593C216,-412.118 216,-402.297 216,-393.104"/>
<polygon fill="black" stroke="black" points="219.5,-393.096 216,-383.096 212.5,-393.096 219.5,-393.096"/>
</g>
<!-- 140515599747112 -->
<g id="node48" class="node"><title>140515599747112</title>
<polygon fill="none" stroke="black" points="14,-253 14,-299 418,-299 418,-253 14,-253"/>
<text text-anchor="middle" x="144" y="-272.3" font-family="Times,serif" font-size="14.00">batchnormalization_11: BatchNormalization</text>
<polyline fill="none" stroke="black" points="274,-253 274,-299 "/>
<text text-anchor="middle" x="301.5" y="-283.8" font-family="Times,serif" font-size="14.00">input:</text>
<polyline fill="none" stroke="black" points="274,-276 329,-276 "/>
<text text-anchor="middle" x="301.5" y="-260.8" font-family="Times,serif" font-size="14.00">output:</text>
<polyline fill="none" stroke="black" points="329,-253 329,-299 "/>
<text text-anchor="middle" x="373.5" y="-283.8" font-family="Times,serif" font-size="14.00">(None, 1024)</text>
<polyline fill="none" stroke="black" points="329,-276 418,-276 "/>
<text text-anchor="middle" x="373.5" y="-260.8" font-family="Times,serif" font-size="14.00">(None, 1024)</text>
</g>
<!-- 140515600023504&#45;&gt;140515599747112 -->
<g id="edge47" class="edge"><title>140515600023504&#45;&gt;140515599747112</title>
<path fill="none" stroke="black" d="M216,-336.593C216,-328.118 216,-318.297 216,-309.104"/>
<polygon fill="black" stroke="black" points="219.5,-309.096 216,-299.096 212.5,-309.096 219.5,-309.096"/>
</g>
<!-- 140515599666704 -->
<g id="node49" class="node"><title>140515599666704</title>
<polygon fill="none" stroke="black" points="66.5,-169 66.5,-215 365.5,-215 365.5,-169 66.5,-169"/>
<text text-anchor="middle" x="144" y="-188.3" font-family="Times,serif" font-size="14.00">activation_11: Activation</text>
<polyline fill="none" stroke="black" points="221.5,-169 221.5,-215 "/>
<text text-anchor="middle" x="249" y="-199.8" font-family="Times,serif" font-size="14.00">input:</text>
<polyline fill="none" stroke="black" points="221.5,-192 276.5,-192 "/>
<text text-anchor="middle" x="249" y="-176.8" font-family="Times,serif" font-size="14.00">output:</text>
<polyline fill="none" stroke="black" points="276.5,-169 276.5,-215 "/>
<text text-anchor="middle" x="321" y="-199.8" font-family="Times,serif" font-size="14.00">(None, 1024)</text>
<polyline fill="none" stroke="black" points="276.5,-192 365.5,-192 "/>
<text text-anchor="middle" x="321" y="-176.8" font-family="Times,serif" font-size="14.00">(None, 1024)</text>
</g>
<!-- 140515599747112&#45;&gt;140515599666704 -->
<g id="edge48" class="edge"><title>140515599747112&#45;&gt;140515599666704</title>
<path fill="none" stroke="black" d="M216,-252.593C216,-244.118 216,-234.297 216,-225.104"/>
<polygon fill="black" stroke="black" points="219.5,-225.096 216,-215.096 212.5,-225.096 219.5,-225.096"/>
</g>
<!-- 140515599616992 -->
<g id="node50" class="node"><title>140515599616992</title>
<polygon fill="none" stroke="black" points="78.5,-85 78.5,-131 353.5,-131 353.5,-85 78.5,-85"/>
<text text-anchor="middle" x="144" y="-104.3" font-family="Times,serif" font-size="14.00">dropout_11: Dropout</text>
<polyline fill="none" stroke="black" points="209.5,-85 209.5,-131 "/>
<text text-anchor="middle" x="237" y="-115.8" font-family="Times,serif" font-size="14.00">input:</text>
<polyline fill="none" stroke="black" points="209.5,-108 264.5,-108 "/>
<text text-anchor="middle" x="237" y="-92.8" font-family="Times,serif" font-size="14.00">output:</text>
<polyline fill="none" stroke="black" points="264.5,-85 264.5,-131 "/>
<text text-anchor="middle" x="309" y="-115.8" font-family="Times,serif" font-size="14.00">(None, 1024)</text>
<polyline fill="none" stroke="black" points="264.5,-108 353.5,-108 "/>
<text text-anchor="middle" x="309" y="-92.8" font-family="Times,serif" font-size="14.00">(None, 1024)</text>
</g>
<!-- 140515599666704&#45;&gt;140515599616992 -->
<g id="edge49" class="edge"><title>140515599666704&#45;&gt;140515599616992</title>
<path fill="none" stroke="black" d="M216,-168.593C216,-160.118 216,-150.297 216,-141.104"/>
<polygon fill="black" stroke="black" points="219.5,-141.096 216,-131.096 212.5,-141.096 219.5,-141.096"/>
</g>
<!-- 140515599617776 -->
<g id="node51" class="node"><title>140515599617776</title>
<polygon fill="none" stroke="black" points="85,-1 85,-47 347,-47 347,-1 85,-1"/>
<text text-anchor="middle" x="144" y="-20.3" font-family="Times,serif" font-size="14.00">predictions: Dense</text>
<polyline fill="none" stroke="black" points="203,-1 203,-47 "/>
<text text-anchor="middle" x="230.5" y="-31.8" font-family="Times,serif" font-size="14.00">input:</text>
<polyline fill="none" stroke="black" points="203,-24 258,-24 "/>
<text text-anchor="middle" x="230.5" y="-8.8" font-family="Times,serif" font-size="14.00">output:</text>
<polyline fill="none" stroke="black" points="258,-1 258,-47 "/>
<text text-anchor="middle" x="302.5" y="-31.8" font-family="Times,serif" font-size="14.00">(None, 1024)</text>
<polyline fill="none" stroke="black" points="258,-24 347,-24 "/>
<text text-anchor="middle" x="302.5" y="-8.8" font-family="Times,serif" font-size="14.00">(None, 10)</text>
</g>
<!-- 140515599616992&#45;&gt;140515599617776 -->
<g id="edge50" class="edge"><title>140515599616992&#45;&gt;140515599617776</title>
<path fill="none" stroke="black" d="M216,-84.5931C216,-76.1177 216,-66.2974 216,-57.104"/>
<polygon fill="black" stroke="black" points="219.5,-57.0958 216,-47.0959 212.5,-57.0959 219.5,-57.0958"/>
</g>
</g>
</svg>
